Working:
[0.03135085, 0.5       , 0.00154798, 0.00104283, 0.5       ,
       0.5       , 0.001108  , 0.00144065]

[4.69689228e-02, 7.00000000e-01, 5.39239699e-04, 5.10360054e-04,
       7.00000000e-01, 7.00000000e-01, 7.66230584e-04, 7.62904180e-04]

[3.31277796e-02, 1.33946874e-01, 1.45958829e-03, 1.80063173e-03,
       3.78951812e-01, 4.99998571e-01, 2.23722112e-04, 2.33708887e-04]

1st nice result
[5.89423729e-02, 7.26015872e-01, 3.55195314e-04, 5.00568613e-04,
       8.99999915e-01, 8.99997805e-01, 5.62950127e-04, 4.90478152e-04]

[5.89423729e-02, 7.26015872e-01, 3.55195314e-04, 5.00568613e-04,
       8.99999915e-01, 8.99997805e-01, 5.62950127e-04, 4.90478152e-04]

sous contrainte
[0.02693465, 0.53881388, 0.001     , 0.001     , 0.54568731,
       0.62606675, 0.001     , 0.001     ]

Optimisation alu
[0.02888755, 0.4651575 , 0.005     , 0.00611168, 0.51621227,
       0.61379317, 0.005     , 0.005     ]
Optimisation inox
[0.02898933, 0.27850003, 0.005     , 0.005     , 0.28033567,
       0.31716061, 0.005     , 0.005     ]